data/cpu_ila_commit.vcd
$date
        2022-Aug-08 22:18:02
$end
$version
        Vivado v2019.2 (64-bit)
$end
$timescale
        1ps
$end
$scope module dut $end
$var reg 1 " commits_0_w_en $end
$var reg 5 # commits_0_addr [4:0] $end
$var reg 32 ( commits_0_data [31:0] $end
$var reg 32 H commits_0_optinfo_pc [31:0] $end
$var reg 32 h commits_0_optinfo_instr [31:0] $end
$var reg 1 *" commits_1_w_en $end
$var reg 5 +" commits_1_addr [4:0] $end
$var reg 32 0" commits_1_data [31:0] $end
$var reg 32 P" commits_1_optinfo_pc [31:0] $end
$var reg 32 p" commits_1_optinfo_instr [31:0] $end
$var reg 32 2# difftest_gpr_1 [31:0] $end
$var reg 32 R# difftest_gpr_2 [31:0] $end
$var reg 32 r# difftest_gpr_3 [31:0] $end
$var reg 32 4$ difftest_gpr_4 [31:0] $end
$var reg 32 T$ difftest_gpr_5 [31:0] $end
$var reg 32 t$ difftest_gpr_6 [31:0] $end
$var reg 32 6% difftest_gpr_7 [31:0] $end
$var reg 32 V% difftest_gpr_8 [31:0] $end
$var reg 32 v% difftest_gpr_9 [31:0] $end
$var reg 32 8& difftest_gpr_10 [31:0] $end
$var reg 32 X& difftest_gpr_11 [31:0] $end
$var reg 32 x& difftest_gpr_12 [31:0] $end
$var reg 32 :' difftest_gpr_13 [31:0] $end
$var reg 32 Z' difftest_gpr_14 [31:0] $end
$var reg 32 z' difftest_gpr_15 [31:0] $end
$var reg 32 <( difftest_gpr_16 [31:0] $end
$var reg 32 \( difftest_gpr_17 [31:0] $end
$var reg 32 |( difftest_gpr_18 [31:0] $end
$var reg 32 >) difftest_gpr_19 [31:0] $end
$var reg 32 ^) difftest_gpr_20 [31:0] $end
$var reg 32 ~) difftest_gpr_21 [31:0] $end
$var reg 32 @* difftest_gpr_22 [31:0] $end
$var reg 32 `* difftest_gpr_23 [31:0] $end
$var reg 32 "+ difftest_gpr_24 [31:0] $end
$var reg 32 B+ difftest_gpr_25 [31:0] $end
$var reg 32 b+ difftest_gpr_26 [31:0] $end
$var reg 32 $, difftest_gpr_27 [31:0] $end
$var reg 32 D, difftest_gpr_28 [31:0] $end
$var reg 32 d, difftest_gpr_29 [31:0] $end
$var reg 32 &- difftest_gpr_30 [31:0] $end
$var reg 32 F- difftest_gpr_31 [31:0] $end
$var reg 32 f- csr_diff_crmd [31:0] $end
$var reg 32 (. csr_diff_prmd [31:0] $end
$var reg 32 H. csr_diff_ectl [31:0] $end
$var reg 32 h. csr_diff_estat [31:0] $end
$var reg 32 */ csr_diff_era [31:0] $end
$var reg 32 J/ csr_diff_badv [31:0] $end
$var reg 32 j/ csr_diff_eentry [31:0] $end
$var reg 32 ,0 csr_diff_tlbidx [31:0] $end
$var reg 32 L0 csr_diff_tlbehi [31:0] $end
$var reg 32 l0 csr_diff_tlbelo0 [31:0] $end
$var reg 32 .1 csr_diff_tlbelo1 [31:0] $end
$var reg 32 N1 csr_diff_asid [31:0] $end
$var reg 32 n1 csr_diff_save0 [31:0] $end
$var reg 32 02 csr_diff_tid [31:0] $end
$var reg 32 P2 csr_diff_tcfg [31:0] $end
$var reg 32 p2 csr_diff_tval [31:0] $end
$var reg 32 23 csr_diff_ticlr [31:0] $end
$var reg 32 R3 csr_diff_llbctl [31:0] $end
$var reg 32 r3 csr_diff_tlbrentry [31:0] $end
$var reg 32 44 csr_diff_dmw0 [31:0] $end
$var reg 32 T4 csr_diff_dmw1 [31:0] $end
$var reg 32 t4 csr_diff_pgdl [31:0] $end
$var reg 32 65 csr_diff_pgdh [31:0] $end
$var reg 1 V5 _TRIGGER $end
$var reg 1 W5 _WINDOW $end
$var reg 1 X5 _GAP $end
$upscope $end
$enddefinitions $end
#0
$dumpvars
0"
b0 #
b0 (
b111000000000000000110111111xz H
b101001000000000000010110001101 h
0*"
b1101 +"
b10000000000000101100000000000000 0"
b11100000000000000011011111100 P"
b101001000000000000010110001101 p"
b11100000000000000010000101000 2#
b0 R#
b100000001100000000000000000 r#
b0 4$
b0 T$
b0 t$
b0 6%
b0 V%
b0 v%
b0 8&
b0 X&
b10111111111000000000000111100000 x&
b0 :'
b11000 Z'
b0 z'
b0 <(
b0 \(
b0 |(
b0 >)
b0 ^)
b0 ~)
b0 @*
b111100110011001101000000000 `*
b0 "+
b0 B+
b1001101100000101100000000000000 b+
b0 $,
b0 D,
b0 d,
b0 &-
b0 F-
b10000 f-
b0 (.
b0 H.
b0 h.
b11100000000000000011000100000 */
b100011100110011010010000111010 J/
b11100000000000000001110000000 j/
b0 ,0
b100011100110011010000000000000 L0
b0 l0
b0 .1
b0 N1
b0 n1
b0 02
b0 P2
b0 p2
b0 23
b1 R3
b0 r3
b10100000000000000000000000001001 44
b1001 T4
b0 t4
b0 65
0V5
1W5
0X5
$end
#193
b1100 (
#194
b0 (
#204
1"
#205
b1101 #
b11 (
b11100000000000000011100000000 H
b11100000000000110000001101 h
b10000000000001101100000000000000 0"
b11100000000000000011100000100 P"
b101001000000000000110110001101 p"
b11 :'
#206
0"
b0 #
b0 (
b11100000000000000011011111100 H
b101001000000000000010110001101 h
#208
b11100000000000000011100000100 H
b101001000000000000110110001101 h
#468
b11 (
#469
b0 (
#479
1"
#480
b1101 #
b11 (
b11100000000000000011100001000 H
b11100000000000110000001101 h
b11100000000000000011100001100 P"
#481
0"
b0 #
b11100000000000000011100000100 H
b101001000000000000110110001101 h
#483
b0 (
b11100000000000000011100001100 H
#743
b11 (
#744
b0 (
#754
1"
#755
b1101 #
b11 (
b11100000000000000011100010000 H
b11100000000000110000001101 h
b10000000000010001100000000000000 0"
b11100000000000000011100010100 P"
b101001000000000001000110001101 p"
#756
0"
b0 #
b11100000000000000011100001100 H
b101001000000000000110110001101 h
#758
b0 (
b11100000000000000011100010100 H
b101001000000000001000110001101 h
#1018
b1101 (
#1019
b0 (
#1029
1"
#1030
b1101 #
b11100000000000000011100011000 H
b101010000000000001101 h
b10000000000000101100000000000000 0"
b11100000000000000011100011100 P"
b101001000000000000010110001101 p"
b0 :'
#1031
0"
b0 #
b11 (
b11100000000000000011100010100 H
b101001000000000001000110001101 h
#1033
b0 (
b11100000000000000011100011100 H
b101001000000000000010110001101 h
#1304
1"
#1305
0"
b11100000000000000011100100100 (
b11100000000000000011100100000 H
b1001100000000000000000000100000 h
#1306
1"
#1307
0"
b0 (
b11100000000000000011100100100 H
b11010000000000000000000000 h
b11 0"
b11100000000000000011100001000 P"
b11100000000000110000001101 p"
#2029
1"
b100 #
b11100000001010010010000101000 (
b11100000000000000010000101000 H
b11100000000000000101001000100 h
b100 +"
b0 0"
b11100000000000000010000101100 P"
b101000100000101101000010000100 p"
b11100000001010010010000101000 4$
#2030
0"
b0 #
b11100000000000000011100100100 (
b11100000000000000011100100000 H
b1001100000000000000000000100000 h
#2032
b100 #
b0 (
b11100000000000000010000101100 H
b101000100000101101000010000100 h
#2290
b1010100000000011110100000000000 (
#2291
b0 (
#2521
1"
b11100000000000000101000111010 (
b11100000000000000101000111010 4$
#2522
0"
b1 #
b11100000000000000010000110100 (
b11100000000000000010000110000 H
b1010100000000011110100000000000 h
#2523
1"
b11100000000000000010000110100 2#
#2524
0"
b100 #
b11100000001010010010000110100 (
b11100000000000000010000110100 H
b11100000000000000101001000100 h
b1101 +"
b11 0"
b11100000000000000011100001000 P"
b11100000000000110000001101 p"
#3438
1"
b110 #
b11100000000000000010000110100 (
b11100000000000000011000011000 H
b101010000000000100110 h
1*"
b101 +"
b100011100110011010010000111010 0"
b11100000000000000011000011100 P"
b100000101110010000101 p"
b100011100110011010010000111010 T$
b11100000000000000010000110100 t$
#3439
0"
b0 #
b11100000000000000010000110000 H
b1010100000000011110100000000000 h
0*"
#3704
b100 #
b0 (
b11100000000000000011000100000 H
b101000000000000000000010100100 h
#3705
1"
b0 #
b1000 f-
b1111110000000000000000 h.
#3706
0"
#3707
b110 #
b11100000000000000010000110100 (
b11100000000000000011000011000 H
b101010000000000100110 h
#4000
1"
b11111 #
b0 (
b0 H
b1111111111111111 h
b1010 +"
b10101010110101010101000000000000 0"
b100 P"
b1010101010101011010101010101010 p"
1V5
#4001
b1 #
b1000 (
b100 H
b1010101010101011010101010101010 h
b1000 2#
#4002
0"
#4003
b11111 #
b0 (
b0 H
b1111111111111111 h
#4064
1"
b0 #
b11111010101010010101010110101100 H
b0 h
#4065
0"
b1000 (
b100 H
b1010101010101011010101010101010 h
#4095
b0 (
b11111010101010010101010110101100 H
b0 h
